…
# Annual trends (yearly mean / min / max)
annual_trends("climate", 2000, 2020)
#> # A tibble: 21 × 4
#>     Year Annual_Mean Annual_Max Annual_Min
#>    <int>       <dbl>      <dbl>      <dbl>
#>  1  2000       0.392       0.56       0.24
#>  2  2001       0.532       0.72       0.43
#>  3  2002       0.628       0.88       0.44
#>  4  2003       0.614       0.74       0.47
#>  5  2004       0.532       0.73       0.26
#>  6  2005       0.676       0.76       0.6 
#>  7  2006       0.635       0.79       0.46
#>  8  2007       0.659       1.01       0.49
#>  9  2008       0.54        0.74       0.29
#> 10  2009       0.654       0.79       0.53
#> # ℹ 11 more rows

# Extreme events per year (e.g., FWI ≥ 10)
extreme_events("fwi", threshold = 10, comparator = ">=", start_year = 2000, end_year = 2020)
#> # A tibble: 21 × 3
#>     Year Extreme_Count Extreme_Frequency
#>    <int>         <int>             <dbl>
#>  1  2000             4             0.333
#>  2  2001             4             0.333
#>  3  2002             3             0.25 
#>  4  2003             4             0.333
#>  5  2004             3             0.25 
#>  6  2005             2             0.167
#>  7  2006             4             0.333
#>  8  2007             2             0.167
#>  9  2008             2             0.167
#> 10  2009             3             0.25 
#> # ℹ 11 more rows
```
…
